%YAML 1.1
%TAG !u! tag:unity3d.com,2011:
--- !u!114 &11400000
MonoBehaviour:
  m_ObjectHideFlags: 0
  m_CorrespondingSourceObject: {fileID: 0}
  m_PrefabInstance: {fileID: 0}
  m_PrefabAsset: {fileID: 0}
  m_GameObject: {fileID: 0}
  m_Enabled: 1
  m_EditorHideFlags: 0
  m_Script: {fileID: 11500000, guid: c0ab0312a96847d48a406e17e3d6e3e2, type: 3}
  m_Name: LevelData
  m_EditorClassIdentifier: 
  LevelDatas:
  - levelName: Level 1(Lemon)
    noOfKnifes: 5
    noOfFruits: 1
    noOfFaultKnife: 0
    rotationData: {fileID: 11400000, guid: 6b92e5527d10ff2449e9ecf0430538f1, type: 2}
    backGroundSprite: {fileID: 21300000, guid: f362d9848e3490d489d884dacc36bd89, type: 3}
    boardSprite: {fileID: 21300000, guid: d962085360e4ed048b7cecd6060a69d6, type: 3}
    knifeSprite: {fileID: 21300000, guid: 48013f88e6cf38147aea5103dc26def5, type: 3}
  - levelName: Level 2(Moon)
    noOfKnifes: 5
    noOfFruits: 2
    noOfFaultKnife: 1
    rotationData: {fileID: 11400000, guid: 94f6082ce2d0c9a498063a433c3171ea, type: 2}
    backGroundSprite: {fileID: 21300000, guid: f362d9848e3490d489d884dacc36bd89, type: 3}
    boardSprite: {fileID: 21300000, guid: 5010b867f7069c94cbb8594b6ae208db, type: 3}
    knifeSprite: {fileID: 21300000, guid: 48013f88e6cf38147aea5103dc26def5, type: 3}
  - levelName: Level 3(Pie)
    noOfKnifes: 6
    noOfFruits: 3
    noOfFaultKnife: 1
    rotationData: {fileID: 11400000, guid: be528608f1f6f1847b7c06a0c3dfc2b2, type: 2}
    backGroundSprite: {fileID: 21300000, guid: f362d9848e3490d489d884dacc36bd89, type: 3}
    boardSprite: {fileID: 21300000, guid: 564668bc74fa01349aab09fa64327532, type: 3}
    knifeSprite: {fileID: 21300000, guid: 48013f88e6cf38147aea5103dc26def5, type: 3}
  - levelName: Level 4(CD)
    noOfKnifes: 7
    noOfFruits: 3
    noOfFaultKnife: 2
    rotationData: {fileID: 11400000, guid: fe2f35417d48d6a4eb763cf507fad2b7, type: 2}
    backGroundSprite: {fileID: 21300000, guid: f362d9848e3490d489d884dacc36bd89, type: 3}
    boardSprite: {fileID: 21300000, guid: bf3ad3f31531d7044b70af004629a3b8, type: 3}
    knifeSprite: {fileID: 21300000, guid: 48013f88e6cf38147aea5103dc26def5, type: 3}
  - levelName: Level 6(Chees)
    noOfKnifes: 7
    noOfFruits: 6
    noOfFaultKnife: 0
    rotationData: {fileID: 11400000, guid: 985f684f209ab7f4c842417a3a1a4b74, type: 2}
    backGroundSprite: {fileID: 21300000, guid: f362d9848e3490d489d884dacc36bd89, type: 3}
    boardSprite: {fileID: 21300000, guid: df05a58e5c6863b4eb4bffe093057630, type: 3}
    knifeSprite: {fileID: 21300000, guid: 48013f88e6cf38147aea5103dc26def5, type: 3}
  - levelName: Level 5(LollyPop)
    noOfKnifes: 7
    noOfFruits: 8
    noOfFaultKnife: 4
    rotationData: {fileID: 11400000, guid: 303e933c5459f8e4587e035e74639514, type: 2}
    backGroundSprite: {fileID: 21300000, guid: 19cd7457e0415d547a2d4746c8a3efe2, type: 3}
    boardSprite: {fileID: 21300000, guid: 19cd7457e0415d547a2d4746c8a3efe2, type: 3}
    knifeSprite: {fileID: 21300000, guid: 48013f88e6cf38147aea5103dc26def5, type: 3}
