%YAML 1.1
%TAG !u! tag:unity3d.com,2011:
--- !u!114 &11400000
MonoBehaviour:
  m_ObjectHideFlags: 0
  m_CorrespondingSourceObject: {fileID: 0}
  m_PrefabInstance: {fileID: 0}
  m_PrefabAsset: {fileID: 0}
  m_GameObject: {fileID: 0}
  m_Enabled: 1
  m_EditorHideFlags: 0
  m_Script: {fileID: 11500000, guid: 09478307d8bb7154dbc39522bafc1f67, type: 3}
  m_Name: Rot_ZigZag_V3
  m_EditorClassIdentifier: 
  datas:
  - Speed: 150
    time: 1
    animationPreset: {fileID: 11400000, guid: 519af0bc518c8914ea01d84bd3d22162, type: 2}
  - Speed: -100
    time: 2
    animationPreset: {fileID: 11400000, guid: 519af0bc518c8914ea01d84bd3d22162, type: 2}
  - Speed: -100
    time: 2
    animationPreset: {fileID: 11400000, guid: 6d0fd0c7f6b3b4049b697893c09943de, type: 2}
